{
    "tenantId": "pg",
    "moduleName": "TradeLicense",
    "CommonFieldsConfig": [
        {
      "head": "",
      "body": [
        {
          "type": "component",
          "component": "TLInfoLabel",
          "key": "tradedetils1",
          "withoutLabel": true,
          "hideInCitizen": true
        }
      ]
    },
    {
      "head": "TL_COMMON_TR_DETAILS",
      "body": [
        {
          "type": "component",
          "component": "TLTradeDetailsEmployee",
          "key": "tradedetils",
          "withoutLabel": true,
          "hideInCitizen": true
        }
      ]
    },
    {
      "head": "TL_TRADE_UNITS_HEADER",
      "body": [
        {
          "type": "component",
          "component": "TLTradeUnitsEmployee",
          "key": "tradeUnits",
          "withoutLabel": true,
          "hideInCitizen": true
        }
      ]
    },
    {
      "head": "TL_NEW_TRADE_DETAILS_HEADER_ACC",
      "body": [
        {
          "type": "component",
          "component": "TLAccessoriesEmployee",
          "key": "accessories",
          "withoutLabel": true,
          "hideInCitizen": true
        }
      ]
    },
    {
      "head": "TL_NEW_APPLICATION_PROPERTY",
      "body": [
        {
          "component": "CPTPropertySearchNSummary",
          "withoutLabel": true,
          "key": "cpt",
          "type": "component",
          "hideInCitizen": true
        }
      ]
    },
    {
      "head": "ES_NEW_APPLICATION_LOCATION_DETAILS",
      "body": [
          {
              "route": "map",
              "component": "TLSelectGeolocation",
              "nextStep": "pincode",
              "hideInEmployee": true,
              "key": "address",
              "withoutLabel": true,
              "texts": {
                  "header": "TL_GEOLOACTION_HEADER",
                  "cardText": "TL_GEOLOCATION_TEXT",
                  "nextText": "CS_COMMON_NEXT",
                  "skipAndContinueText": "CORE_COMMON_SKIP_CONTINUE"
              }
          },
          {
              "route": "pincode",
              "component": "TLSelectPincode",
              "texts": {
                  "headerCaption": "TL_LOCATION_CAPTION",
                  "header": "TL_PINCODE_HEADER",
                  "cardText": "TL_PINCODE_TEXT",
                  "submitBarLabel": "CS_COMMON_NEXT",
                  "skipText": "CORE_COMMON_SKIP_CONTINUE"
              },
              "withoutLabel": true,
              "key": "address",
              "nextStep": "address",
              "type": "component"
          },
          {
              "route": "address",
              "component": "TLSelectAddress",
              "withoutLabel": true,
              "texts": {
                  "headerCaption": "TL_LOCATION_CAPTION",
                  "header": "TL_ADDRESS_HEADER",
                  "cardText": "TL_ADDRESS_TEXT",
                  "submitBarLabel": "CS_COMMON_NEXT"
              },
              "key": "address",
              "nextStep": "street",
              "isMandatory": true,
              "type": "component"
          },
          {
              "type": "component",
              "route": "street",
              "component": "TLSelectStreet",
              "key": "address",
              "withoutLabel": true,
              "hideInEmployee": true,
              "texts": {
                  "headerCaption": "TL_LOCATION_CAPTION",
                  "header": "TL_ADDRESS_HEADER",
                  "cardText": "TL_STREET_TEXT",
                  "submitBarLabel": "CS_COMMON_NEXT"
              },
              "inputs": [
                  {
                      "label": "TL_LOCALIZATION_STREET_NAME",
                      "type": "text",
                      "name": "street",
                      "disable": "window.location.href.includes(`edit-application`)||window.location.href.includes(`renew-trade`)"
                  },
                  {
                      "label": "TL_LOCALIZATION_BUILDING_NO",
                      "type": "text",
                      "name": "doorNo",
                      "disable": "window.location.href.includes(`edit-application`)||window.location.href.includes(`renew-trade`)"
                  }
              ],
              "nextStep": "landmark"
          },
          {
              "type": "component",
              "component": "TLSelectStreet",
              "key": "address",
              "withoutLabel": true,
              "hideInCitizen": true,
              "texts": {
                  "headerCaption": "TL_LOCATION_CAPTION",
                  "header": "TL_ADDRESS_HEADER",
                  "cardText": "TL_STREET_TEXT",
                  "submitBarLabel": "CS_COMMON_NEXT"
              },
              "inputs": [
                  {
                      "label": "TL_LOCALIZATION_BUILDING_NO",
                      "type": "text",
                      "name": "doorNo"
                  },
                  {
                      "label": "TL_LOCALIZATION_STREET_NAME",
                      "type": "text",
                      "name": "street"
                  }
              ]
          },
          {
              "type": "component",
              "route": "landmark",
              "component": "TLSelectLandmark",
              "withoutLabel": true,
              "texts": {
                  "headerCaption": "TL_LOCATION_CAPTION",
                  "header": "CS_FILE_APPLICATION_PROPERTY_LOCATION_PROVIDE_LANDMARK_TITLE",
                  "cardText": "TL_LANDMARK_TEXT",
                  "submitBarLabel": "CS_COMMON_NEXT",
                  "skipText": "CORE_COMMON_SKIP_CONTINUE"
              },
              "key": "address",
              "nextStep": "owner-ship-details",
              "hideInEmployee": true
          },
          {
              "type": "component",
              "route": "proof",
              "component": "TLProof",
              "withoutLabel": true,
              "texts": {
                  "headerCaption": "TL_OWNERS_DETAILS",
                  "header": "TL_OWNERS_PHOTOGRAPH_HEADER",
                  "cardText": "",
                  "nextText": "CS_COMMON_NEXT",
                  "submitBarLabel": "CS_COMMON_NEXT"
              },
              "key": "owners",
              "nextStep": null,
              "hideInEmployee": true
          }
      ]
    },
    {
      "head": "ES_NEW_APPLICATION_PROPERTY_ASSESSMENT",
      "body": [
        {
          "route": "info",
          "component": "TradeLicense",
          "nextStep": "TradeName",
          "hideInEmployee": true,
          "key": "tl"
        },
        {
          "route": "TradeName",
          "component": "SelectTradeName",
          "texts": {
            "headerCaption": "",
            "header": "TL_TRADE_NAME_HEADER",
            "cardText": "TL_TARDE_NAME_TEXT",
            "submitBarLabel": "CS_COMMON_NEXT",
            "skipText": ""
          },
          "withoutLabel": true,
          "key": "TradeDetails",
          "nextStep": "structure-type",
          "type": "component",
          "hideInEmployee": true
        },
        {
          "type": "component",
          "route": "structure-type",
          "isMandatory": true,
          "component": "SelectStructureType",
          "texts": {
            "headerCaption": "TL_STRUCTURE_TYPE",
            "header": "TL_STRUCTURE_TYPE_HEADER",
            "cardText": "TL_STRUCTURE_TYPE_TEXT",
            "submitBarLabel": "CS_COMMON_NEXT"
          },
          "key": "TradeDetails",
          "withoutLabel": true,
          "hideInEmployee": true,
          "nextStep": {
            "TL_COMMON_YES": "Building-type",
            "TL_COMMON_NO": "vehicle-type"
          }
        },
        {
          "type": "component",
          "route": "vehicle-type",
          "isMandatory": true,
          "component": "TLSelectVehicleType",
          "texts": {
            "headerCaption": "TL_STRUCTURE_SUBTYPE_CAPTION",
            "header": "TL_VEHICLE_TYPE_HEADER",
            "cardText": "TL_VEHICLE_TYPE_TEXT",
            "submitBarLabel": "CS_COMMON_NEXT"
          },
          "key": "TradeDetails",
          "withoutLabel": true,
          "hideInEmployee": true,
          "nextStep": "commencement-date"
        },
        {
          "type": "component",
          "route": "Building-type",
          "isMandatory": true,
          "component": "SelectBuildingType",
          "texts": {
            "headerCaption": "TL_STRUCTURE_SUBTYPE_CAPTION",
            "header": "TL_BUILDING_TYPE_HEADER",
            "cardText": "TL_BUILDING_TYPE_TEXT",
            "submitBarLabel": "CS_COMMON_NEXT"
          },
          "key": "TradeDetails",
          "withoutLabel": true,
          "hideInEmployee": true,
          "nextStep": "commencement-date"
        },
        {
          "type": "component",
          "route": "commencement-date",
          "isMandatory": true,
          "component": "SelectCommencementDate",
          "texts": {
            "headerCaption": "",
            "header": "TL_NEW_TRADE_DETAILS_TRADE_COMM_DATE_LABEL",
            "cardText": "TL_TRADE_COMM_DATE_TEXT",
            "submitBarLabel": "CS_COMMON_NEXT"
          },
          "key": "TradeDetails",
          "withoutLabel": true,
          "hideInEmployee": true,
          "nextStep": "units-details"
        },
        {
          "isMandatory": true,
          "type": "component",
          "route": "units-details",
          "key": "TradeDetails",
          "component": "SelectTradeUnits",
          "texts": {
            "headerCaption": "",
            "header": "TL_TRADE_UNITS_HEADER",
            "cardText": "TL_TRADE_UNITS_TEXT",
            "submitBarLabel": "CS_COMMON_NEXT"
          },
          "withoutLabel": true,
          "nextStep": "isAccessories",
          "hideInEmployee": true
        },
        {
          "type": "component",
          "route": "isAccessories",
          "isMandatory": true,
          "component": "SelectAccessories",
          "texts": {
            "headerCaption": "",
            "header": "TL_ISACCESSORIES_HEADER",
            "cardText": "TL_ISACCESSORIES_TEXT",
            "submitBarLabel": "CS_COMMON_NEXT"
          },
          "key": "TradeDetails",
          "withoutLabel": true,
          "hideInEmployee": true,
          "nextStep": {
            "TL_COMMON_YES": "accessories-details",
            "TL_COMMON_NO": "other-trade-details"
          }
        },
        {
          "isMandatory": true,
          "type": "component",
          "route": "accessories-details",
          "key": "TradeDetails",
          "component": "SelectAccessoriesDetails",
          "texts": {
            "headerCaption": "",
            "header": "TL_TRADE_ACCESSORIES_HEADER",
            "cardText": "TL_TRADE_ACCESSORIES_TEXT",
            "submitBarLabel": "CS_COMMON_NEXT"
          },
          "withoutLabel": true,
          "nextStep": "other-trade-details",
          "hideInEmployee": true
     },
     {
          "isMandatory": true,
          "type": "component",
          "route": "other-trade-details",
          "key": "TradeDetails",
          "component": "SelectOtherTradeDetails",
          "texts": {
            "headerCaption": "",
            "header": "TL_OTHER_TRADE_DETAILS_HEADER",
            "cardText": "",
            "submitBarLabel": "CS_COMMON_NEXT",
            "skipText": "CORE_COMMON_SKIP_CONTINUE"
        },
          "withoutLabel": true,
          "nextStep": "know-your-property",
          "hideInEmployee": true
        }
      ]
    },
    {
      "head": "ES_NEW_APPLICATION_OWNERSHIP_DETAILS",
      "body": [
        {
          "type": "component",
          "route": "owner-ship-details",
          "isMandatory": true,
          "component": "TLSelectOwnerShipDetails",
          "texts": {
            "headerCaption": "TL_TRADE_OWNERSHIP_CAPTION",
            "header": "TL_PROVIDE_OWNERSHIP_DETAILS",
            "cardText": "TL_PROVIDE_OWNERSHI_DETAILS_SUB_TEXT",
            "submitBarLabel": "CS_COMMON_NEXT"
          },
          "key": "ownershipCategory",
          "withoutLabel": true,
          "nextStep": "owner-details"
        },
        {
          "isMandatory": true,
          "type": "component",
          "route": "owner-details",
          "key": "owners",
          "component": "TLSelectOwnerDetails",
          "texts": {
            "headerCaption": "",
            "header": "TL_OWNERSHIP_INFO_SUB_HEADER",
            "cardText": "TL_OWNER_DETAILS_TEXT",
            "submitBarLabel": "CS_COMMON_NEXT"
          },
          "withoutLabel": true,
          "nextStep": "owner-address",
          "hideInEmployee": true
        },
        {
          "type": "component",
          "route": "owner-address",
          "isMandatory": true,
          "component": "TLSelectOwnerAddress",
          "texts": {
            "headerCaption": "TL_OWNERS_DETAILS",
            "header": "TL_OWNERS_ADDRESS",
            "cardText": "",
            "submitBarLabel": "CS_COMMON_NEXT"
          },
          "key": "owners",
          "withoutLabel": true,
          "nextStep": "proof-of-identity",
          "hideInEmployee": true
        },
        {
          "type": "component",
          "route": "proof-of-identity",
          "isMandatory": true,
          "component": "TLSelectProofIdentity",
          "texts": {
            "headerCaption": "TL_OWNERS_DETAILS",
            "header": "TL_PROOF_IDENTITY_HEADER",
            "cardText": "",
            "submitBarLabel": "CS_COMMON_NEXT",
            "addMultipleText": "PT_COMMON_ADD_APPLICANT_LABEL"
          },
          "key": "owners",
          "withoutLabel": true,
          "nextStep": "ownership-proof",
          "hideInEmployee": true
        },
        {
          "type": "component",
          "route": "ownership-proof",
          "isMandatory": true,
          "component": "SelectOwnershipProof",
          "texts": {
            "headerCaption": "TL_OWNERS_DETAILS",
            "header": "TL_OWNERSHIP_DOCUMENT",
            "cardText": "",
            "submitBarLabel": "CS_COMMON_NEXT"
          },
          "key": "owners",
          "withoutLabel": true,
          "nextStep": "proof",
          "hideInEmployee": true
        },
        {
          "type": "component",
          "component": "TLOwnerDetailsEmployee",
          "key": "owners",
          "withoutLabel": true,
          "hideInCitizen": true
        }
      ]
    },
    {
      "head": "",
      "body": [
        {
          "type": "component",
          "route": "know-your-property",
          "isMandatory": true,
          "component": "CPTKnowYourProperty", 
          "texts": {
            "header": "PT_DO_YOU_KNOW_YOUR_PROPERTY",
            "submitBarLabel": "CS_COMMON_NEXT"
          },
          "key": "knowyourproperty",
          "isCreateEnabled" : true,
          "withoutLabel": true,
          "nextStep": {
            "TL_COMMON_YES": "search-property",
            "TL_COMMON_NO": "create-property"
          },
          "hideInEmployee": true
        },
        {
          "type": "component",
          "route": "search-property",
          "isMandatory": true,
          "component": "CPTSearchProperty", 
          "key": "cptsearchproperty",
          "withoutLabel": true,
          "nextStep": "search-results",
          "hideInEmployee": true
        },
        {
          "type": "component",
          "route": "search-results",
          "isMandatory": true,
          "component": "CPTSearchResults", 
          "key": "cptsearchresults",
          "withoutLabel": true,
          "nextStep": "property-details",
          "hideInEmployee": true
        },
        {
          "type": "component",
          "route": "create-property", 
          "isMandatory": true,
          "component": "CPTCreateProperty", 
          "key": "cptcreateproperty",
          "isSkipEnabled" : true,
          "withoutLabel": true,
          "nextStep": "acknowledge-create-property",
          "hideInEmployee": true
        },
        {
          "type": "component",
          "route": "acknowledge-create-property", 
          "isMandatory": true,
          "component": "CPTAcknowledgement", 
          "key": "cptacknowledgement",
          "withoutLabel": true,
          "nextStep": "property-details",
          "hideInEmployee": true
        },
        {
          "type": "component",
          "route": "property-details",
          "isMandatory": true,
          "component": "CPTPropertyDetails", 
          "key": "propertydetails",
          "withoutLabel": true,
          "nextStep": "owner-ship-details",
          "hideInEmployee": true
        }
      ]
    },
   
    {
      "head": "TL_NEW_APPLICATION_DOCUMENTS_REQUIRED",
      "body": [
        {
          "component": "TLDocumentsEmployee",
          "withoutLabel": true,
          "key": "documents",
          "type": "component",
          "hideInCitizen": true
        }
      ]
    }
  ]
}
