{
  "tenantId": "pg",
  "moduleName": "ws-services-masters",
  "billingPeriod": [
    {
      "active": true,
      "connectionType": "Metered",
      "billingCycle": "quarterly",
      "demandEndDateMillis": 2592000000,
      "demandExpiryDate": 0,
      "demandGenerationDateMillis": 345600000
    },
    {
      "active": true,
      "connectionType": "Non Metered",
      "billingCycle": "monthly",
      "demandEndDateMillis": 2592000000,
      "demandExpiryDate": 0,
      "demandGenerationDateMillis": 345600000
    },
    {
      "active": true,
      "connectionType": "Bulk-supply",
      "billingCycle": "monthly",
      "demandEndDateMillis": 2592000000,
      "demandExpiryDate": 0,
      "demandGenerationDateMillis": 345600000
    }
  ]
}
