{
    "tenantId": "pg",
    "moduleName": "common-masters",
    "howItWorks": [
        {
            "PT": {
                "moduleCode" : "PT",
                "videosJson":  [
                    {
                        "headerLabel": "ADD_PROPERTY",
                        "description": "ADD_PROPERTY_VIDEO_DESC",
                        "en_IN": "https://media.w3.org/2010/05/sintel/trailer.mp4",
                        "hi_IN": "https://media.w3.org/2010/05/sintel/trailer.mp4"
                    },
                    {
                        "headerLabel": "PROPERTY_BIFURCATON",
                        "description": "PROPERTY_BIFURCATON_VIDEO_DESC",
                        "en_IN": "https://media.w3.org/2010/05/sintel/trailer.mp4",
                        "hi_IN": "https://media.w3.org/2010/05/sintel/trailer.mp4"
                    },
                    {
                        "headerLabel": "MODIFYING_PROPERTY_DETAILS",
                        "description": "MODIFYING_PROPERTY_DETAILS_VIDEO_DESC",
                        "en_IN": "https://media.w3.org/2010/05/sintel/trailer.mp4",
                        "hi_IN": "https://media.w3.org/2010/05/sintel/trailer.mp4"
                    }
                ],
                "pdfHeader": "CITIZEN_CHARTER_DOCUMENT",
                "pdfDesc": "CITIZEN_CHARTER_DOC_DESC"
            },

            "TL": {
                "moduleCode" : "TL",
                "videosJson":  [
                    {
                        "headerLabel": "ADD_TRADE_LICENCE",
                        "description": "ADD_TRADE_LICENCE_VIDEO_DESC",
                        "en_IN": "https://media.w3.org/2010/05/sintel/trailer.mp4",
                        "hi_IN": "https://media.w3.org/2010/05/sintel/trailer.mp4"
                    },
                    {
                        "headerLabel": "TL_BIFURCATION",
                        "description": "TL_BIFURCATION_VIDEO_DESC",
                        "en_IN": "https://media.w3.org/2010/05/sintel/trailer.mp4",
                        "hi_IN": "https://media.w3.org/2010/05/sintel/trailer.mp4"
                    },
                    {
                        "headerLabel": "MODIFYING_TL_DETAILS",
                        "description": "MODIFYING_TL_DETAILS_VIDEO_DESC",
                        "en_IN": "https://media.w3.org/2010/05/sintel/trailer.mp4",
                        "hi_IN": "https://media.w3.org/2010/05/sintel/trailer.mp4"
                    }
                ],
                "pdfHeader": "CITIZEN_CHARTER_DOCUMENT",
                "pdfDesc": "CITIZEN_CHARTER_DOC_DESC"
            }
        }
    ]
}